#150 - Tarnovo | 

owner = A13
controller = A13
add_core = A13
add_core = A52
culture = gawedi
religion = regent_court

hre = no

base_tax = 2
base_production = 2
base_manpower = 1

trade_goods = wool

capital = ""

is_city = yes









