# No previous file for Rouergue
owner = A06
controller = A06
add_core = A06
culture = cliff_gnome
religion = the_thought

hre = no

base_tax = 3
base_production = 3
base_manpower = 1

trade_goods = fish
capital = ""

is_city = yes







