#525 - Gordihr

owner = F23
controller = F23
add_core = F23
culture = copper_dwarf
religion = ancestor_worship

base_tax = 8
base_production = 8
base_manpower = 5

trade_goods = naval_supplies

capital = ""

is_city = yes












add_permanent_province_modifier = {
	name = human_minority_coexisting_small
	duration = -1
}