g_spiderwretch_column_4 = {
	slot = 4
	generic = no
	ai = yes
	potential = {
		tag = H90
		NOT = {
			has_country_modifier = allclan_split
		}
	}
	has_country_shield = yes

    g_a_clan_in_the_spiderdens = {
		icon = mission_fortify_rajputana
		position = 1
		required_missions = {

		}
		trigger = {
			manpower = 30	
		}
		
		effect = {
			add_manpower = -15
			add_country_modifier = {
				name = cave_goblin_spider_colonies
				duration = 7300
			}
		}
	}
	g_perfecting_venombrew = {
		icon = mission_fortify_rajputana
		position = 2
		required_missions = {
			g_a_clan_in_the_spiderdens
		}
		trigger = {	
			adm_power = 100
			dip_power = 100
			mil_power = 100
			OR = {
				quartermaster = 1
				natural_scientist = 1
				spymaster = 1
				court_mage = 1
			}
		}
		
		effect = {
			add_adm_power = -100
			add_dip_power = -100
			add_mil_power = -100
			add_prestige = 100
			add_splendor = 100
		}
	}
	g_uniting_the_spiderlands = {
		icon = mission_fortify_rajputana
		position = 3
		required_missions = {
			g_perfecting_venombrew
		}
		trigger = {
			travelers_refuge_area = {
				owned_by = FROM
			}
			
			westnest_area = {
				owned_by = FROM
			}
			
			eastnest_area = {
				owned_by = FROM
			}
		}
		
		effect = {
			add_country_modifier = {
				name = cave_goblin_spider_trainers
				duration = 9125
			}
		}
	}
	g_all_encompassing_ruler = {
		icon = mission_fortify_rajputana
		position = 4
		required_missions = {
			g_uniting_the_spiderlands
		}
		trigger = {
			num_of_cavalry = 10 #kinda boring
			army_tradition = 50 #much better
			overextension_percentage = 0.5
		}
		
		effect = {
			add_country_modifier = {
				name = cave_goblin_spider_khan
				duration = 7300
			}
			define_general = {
				shock = 6
				fire = 6
				manuever = 6
				siege = 0 #6 is way too much siege and too strong
				name = "Goblin Khan"
				trait = born_to_the_saddle_personality
			}
		}
	}
	g_the_clan_on_spiderback = {
		icon = mission_fortify_rajputana
		position = 5
		required_missions = {
			g_all_encompassing_ruler
		}
		trigger = {
			num_of_cavalry = 20
			cavalry_fraction = 0.6
			army_tradition = 100
			overextension_percentage = 1
			has_global_modifier_value = {
				which = cavalry_power
				value = -0.1
			}
			technology_group = tech_goblin
		}
		
		effect = {
			add_country_modifier = {
				name = cave_goblin_spiderwretch
				duration = -1
			}
			#swap_non_generic_missions = yes
			swap_free_idea_group = yes
			override_country_name = PAUZKLAN # Spider Land
		}
	}
}
#g_spiderwretch_goblin_khan_column_4 = {
#	slot = 4
#	generic = no
#	ai = yes
#	potential = {
#		tag = H90
#		has_country_modifier = cave_goblin_spiderwretch
#	}
#	has_country_shield = yes
#
#    g_gobaen_gobuleg = {
#		icon = mission_fortify_rajputana
#		position = 1
#		required_missions = {
#
#		}
#		trigger = {
#	
#		}
#		
#		effect = {
#
#		}
#	}
#}


#these trees show up during the allclan civil war. Replaces generic resurce missions and special warband ones
g_spiderwretch_civil_war_region_column_4 = { #involves doing stuff with their spawn area
	slot = 4
	generic = no
	ai = yes
	potential = {
		tag = H90
		has_country_modifier = allclan_split
	}
	has_country_shield = yes

    g_establishing_our_clan = {
		icon = mission_fortify_rajputana
		position = 1
		required_missions = {

		}
		trigger = {

		}
		
		effect = {
			
		}
	}
}
g_spiderwretch_civil_war_column_5 = {
	slot = 5
	generic = no
	ai = yes
	potential = {
		tag = H90
		has_country_modifier = allclan_split
	}
	has_country_shield = yes

    g_the_great_kinstrife = {
		icon = mission_fortify_rajputana
		position = 1
		required_missions = {

		}
		trigger = {
			OR = {
				has_country_modifier = allclan_split
			}	
		}
		
		effect = {
			create_general = {
				tradition = 100
				#add_siege = -1
			}
			override_country_name = PAUZKLAN # Spider Land
			swap_free_idea_group = yes
		}
	}
}